alleviate,"смягчать, облегчать"
congestion,"затор, скопление, перегруженность"
premise,предпосылка
premised on,основанный на
snail's pace,скорость улитки
inEvitabely,неизбежно
considering,учитывая
traitor,изменник
wiretap,прослушивание тел.разговоров
to ignite,воспламеняться
suspicious,подозрительный
invade,"вторгаться, оккупировать"
impEdiment,"препятствие, задержка"
density,плотность
to distract by,отвлекаться на
irrespective (of),независимо
to acquire,"приобретать, овладевать"
diligence,"старание, усердие"
swashbuckler,"головорез, удалой"
intimidating,пугающий
attainment,"достижение, навыки"
prematurely,преждевременно
scrutinize,"тщательно исследовать, изучать"
retaliation,"отплата, воздаяние, отдать должное"
census,перепись
disadvantaged,"неблагоприятный, обделённый, обиженный"
nebulous,"расплывчатый, неясный, туманный"
to thrive,"процветать, преуспевать"
accomodation fee,плата за проживание
they fascinated me,они очаровали меня
to confer Ruby citizenship upon you,"дать вам ""гражданство Ruby"""
a hitchhike,автостоп
homesick,тоскующий по дому
the last frontier,"последняя граница, преграда"
holistic training,"целостная, полноценная практика"
to make a tradeoffs,идя на компромиссы
smth impedes me,"что-то мешает мне, затрудняет, тормозит"
emphasis,акцент
to perpetuate,"увековечить, сохранить навсегда"
interrogate him,опроси его
to hone in,оттачивать
cohesion,сплочённость
prematurely,преждевременно
resist,"сопротивляйтесь, не поддавайтесь"
unjustified,"необоснованный, неоправданный"
preemptively,превентивно
education_scotland_scrape,
do not hesitate to ask,не стесняйтесь спросить
violation,нарушение
consecutively,последовательно
objection,возражение
to regret,сожалеть
correlation,взаимосвязь
one-to-one correlation,связь один к одному
to reinforce,усиливать
the key takeaway,"ключевой момент, суть"
to profess,"открыто заявлять, исповедовать; притворяться"
harsh,"резкий, суровый"
dials,циферблаты
the irb ships with Ruby,... поставляется вместе с Ruby
comprehensive,"всесторонний, комплексный"
comprehensible,понятный
comprehension,"понимание, постижение, осмысление"
beyond comprehension,вне понимания
indispensable,незаменимый
expedient,целесообразный
equitable,справедливый
task rendition,исполнение задачи
inconsistency,несогласованность
as you can surmise,как вы можете догадаться
to debunk the myth,развенчать миф
we can commit to learn,мы можем посвятить изучению
the result may be unnoticeable,рез-т м.б незаметным
you may notice that,вы можете заметить что
to run scripts successively,"запустить скрипты последовательно, один за другим"
to learn juggle,учиться жонглировать
thisis a one-off issue,это единоразовая проблема (не постоянная)
in the left (side),слева (с левой стороны)
liability,ответственность
to connote,"означать, ассоциироваться"
she will obediently execute it,она послушно выполнит это
methods that automatically traverse collections,"методы, автом. перемещающиеся по коллекции (итераторы)"
don’t have to be confined,не д.б ограничен
smth goes awry,"что-то идёт наперекосяк, неправильно, косо"
illustrates how objects get entangled with one another,"показывает, как объекты становятся спутанными друг с другом"
regimen,режим
the immersion process,процесс погружения
he definitely will evolve,он определённо будет развиваться
pretend it is SENTIENT,"представь, что он ЖИВОЙ, живое существо"
equally PLAUSIBLE alternatives,"ПРАВДОПОДОБНЫЙ; но здесь, скорее, ""равноценный"""
to feel COMPELLED to do smth,чувствовать себя ВЫНУЖДЕННЫМ что-то делать
to be DISMAYED,"быть ВСТРЕВОЖЕННЫМ, испуганным"
it seems INNOCUOUS,это выглядит БЕЗОБИДНО
INTERIM report,ПРОМЕЖУТОЧНЫЙ доклад
the school was MOTHBALLED,школа была ЗАКОНСЕРВИРОВАНА
ominous,"угрожающий, зловещий"
